{
  "minecraft:adventure/root": {
    "criteria": {
      "killed_by_something": "2020-11-28 10:15:02 +0000"
    },
    "done": true
  },
  "minecraft:adventure/adventuring_time": {
    "criteria": {
      "minecraft:plains": "2020-11-28 10:13:55 +0000"
    },
    "done": false
  },
  "DataVersion": 2584
}